atomicwrites==1.2.1
attrs==18.2.0
beautifulsoup4==4.6.3
coverage==4.5.1
hupper==1.3
Jinja2==2.10
Mako==1.0.7
MarkupSafe==1.0
more-itertools==4.3.0
PasteDeploy==1.5.2
pathlib2==2.3.2
plaster==1.0
plaster-pastedeploy==0.6
pluggy==0.7.1
py==1.6.0
Pygments==2.2.0
pyramid==1.9.2
pyramid-debugtoolbar==4.5
pyramid-jinja2==2.7
pyramid-mako==1.0.2
pyramid-tm==2.2
pytest==3.8.2
pytest-cov==2.6.0
repoze.lru==0.7
six==1.11.0
SQLAlchemy==1.2.12
transaction==2.2.1
translationstring==1.3
venusian==1.1.0
waitress==1.1.0
WebOb==1.8.2
WebTest==2.0.30
zope.deprecation==4.3.0
zope.interface==4.5.0
zope.sqlalchemy==1.0